Size, Run1, Run2, Run3, Run4, Run5, Run6, Run7, Run8, Run9, Run10, Run11, Run12, Run13, Run14, Run15
1000, 251094, 242753, 247296, 254208, 245691, 257703, 251704, 242906, 255288, 248707, 248436, 250354, 240989, 248677, 254060
1500, 565492, 557377, 560212, 571917, 557729, 564740, 557880, 578254, 546189, 565132, 549166, 569981, 550972, 570362, 567334
2000, 1003999, 982941, 996871, 1014409, 1004636, 951358, 994089, 1000845, 977341, 1005272, 997902, 1010445, 997438, 978340, 994735
2500, 1555665, 1581032, 1549702, 1544847, 1584318, 1551856, 1535964, 1606779, 1582900, 1562793, 1557290, 1527609, 1568987, 1534225, 1557091
3000, 2247125, 2313324, 2231377, 2239955, 2225539, 2242454, 2253375, 2210131, 2209416, 2264193, 2276787, 2306375, 2253834, 2243829, 2195240
3500, 3023861, 3108279, 3111023, 3104975, 3039213, 3090479, 3068262, 3061374, 3087990, 3077895, 3099821, 3031127, 3065097, 3124608, 3072082
4000, 4010119, 3988254, 4007154, 3982750, 4001139, 3993501, 4047812, 4016249, 4069165, 3987753, 4057696, 4045445, 3955377, 4001600, 4050385
4500, 5077757, 5085528, 5087794, 5063173, 5117409, 5162861, 5030742, 4981206, 5057912, 5064606, 5032885, 5050532, 5198959, 5081705, 5046898
5000, 6216899, 6210494, 6275337, 6308847, 6189832, 6296870, 6313758, 6319184, 6209205, 6250139, 6172960, 6231863, 6165321, 6252984, 6208700
5500, 7494715, 7586246, 7508941, 7419114, 7630318, 7544018, 7605614, 7508283, 7615593, 7704349, 7637397, 7555768, 7535671, 7547050, 7596586
6000, 8977487, 9089552, 8982201, 8935880, 9047080, 8919409, 9132521, 9157917, 9012997, 8878052, 9007701, 8993886, 9140970, 8861214, 9120179
6500, 10516905, 10547286, 10484573, 10531125, 10582087, 10536184, 10432932, 10324190, 10532225, 10539510, 10623523, 10441944, 10762046, 10580418, 10421840
7000, 12270888, 12334534, 12286009, 12383139, 12254527, 12135864, 12218976, 12073702, 12458985, 12241728, 12232582, 12217727, 12256007, 12258008, 12055710
7500, 14166796, 13974751, 14068781, 14084993, 6839333, 14019407, 14079876, 14050374, 14162553, 14002389, 13954144, 14109508, 14035639, 14193498, 13888099
